%YAML 1.1
%TAG !u! tag:unity3d.com,2011:
--- !u!114 &11400000
MonoBehaviour:
  m_ObjectHideFlags: 0
  m_CorrespondingSourceObject: {fileID: 0}
  m_PrefabInstance: {fileID: 0}
  m_PrefabAsset: {fileID: 0}
  m_GameObject: {fileID: 0}
  m_Enabled: 1
  m_EditorHideFlags: 0
  m_Script: {fileID: 11500000, guid: be5b4585001a336448ab33b1c37f95de, type: 3}
  m_Name: Bleeding Slash
  m_EditorClassIdentifier: 
  uniqueId: 18287c28891ff124bab1ba035fe41b31
  type: 2
  cardName: Bleeding Slash
  artwork: {fileID: 21300000, guid: 0ad6d4f27d11bf648b9d8dc3f9d9d6ee, type: 3}
  cardPrefab: {fileID: 6926223370740451192, guid: 00af9f01129f94c408c66f3e618287ef,
    type: 3}
  auraCost: 3
  tributeCost: 0
  isSupport: 0
  damage: 30
  blockDamage: 0
  attackDescription: 
  defendDescription: 
  onHitDescription: The target fighter takes 30 damage at the end of your opponent's
    next offensive turn.
  description: 
  limit: -1
  MagicRequirement: 0
  TechRequirement: 90
  StrengthRequirement: 40
  abilityType: 0
  style: 1
  hasAttack: 1
  hasDefend: 0
