%YAML 1.1
%TAG !u! tag:unity3d.com,2011:
--- !u!114 &11400000
MonoBehaviour:
  m_ObjectHideFlags: 0
  m_CorrespondingSourceObject: {fileID: 0}
  m_PrefabInstance: {fileID: 0}
  m_PrefabAsset: {fileID: 0}
  m_GameObject: {fileID: 0}
  m_Enabled: 1
  m_EditorHideFlags: 0
  m_Script: {fileID: 11500000, guid: be5b4585001a336448ab33b1c37f95de, type: 3}
  m_Name: Burn Bash
  m_EditorClassIdentifier: 
  uniqueId: 7dcfe545b6d1707469e0f207f2edf325
  type: 2
  cardName: Burn Bash
  artwork: {fileID: 21300000, guid: bda5641b9a99d8444a4656e9179e5d4a, type: 3}
  cardPrefab: {fileID: 6926223370740451192, guid: 00af9f01129f94c408c66f3e618287ef,
    type: 3}
  auraCost: 1
  tributeCost: 0
  isSupport: 0
  damage: 10
  blockDamage: 0
  attackDescription: 
  defendDescription: 
  onHitDescription: "Draw a card. If it\u2019s an aura card deal 30 damage to the
    target fighter."
  description: This ability is usable only 3 times per turn.
  limit: 3
  MagicRequirement: 100
  TechRequirement: 50
  StrengthRequirement: 0
  abilityType: 3
  style: 2
  hasAttack: 1
  hasDefend: 0
