%YAML 1.1
%TAG !u! tag:unity3d.com,2011:
--- !u!114 &11400000
MonoBehaviour:
  m_ObjectHideFlags: 0
  m_CorrespondingSourceObject: {fileID: 0}
  m_PrefabInstance: {fileID: 0}
  m_PrefabAsset: {fileID: 0}
  m_GameObject: {fileID: 0}
  m_Enabled: 1
  m_EditorHideFlags: 0
  m_Script: {fileID: 11500000, guid: be5b4585001a336448ab33b1c37f95de, type: 3}
  m_Name: Fury Uppercut
  m_EditorClassIdentifier: 
  uniqueId: 522f35dca464f964f9b65b312266da03
  type: 2
  cardName: Fury Uppercut
  artwork: {fileID: 21300000, guid: 35cfdfbfbc606914aa955e6b6be748ae, type: 3}
  cardPrefab: {fileID: 6926223370740451192, guid: 00af9f01129f94c408c66f3e618287ef,
    type: 3}
  auraCost: 3
  tributeCost: 0
  isSupport: 0
  damage: 20
  blockDamage: 0
  attackDescription: 
  defendDescription: 
  onHitDescription: The target fighter is now dazed.
  description: 
  limit: -1
  MagicRequirement: 0
  TechRequirement: 80
  StrengthRequirement: 80
  abilityType: 0
  style: 3
  hasAttack: 1
  hasDefend: 0
