%YAML 1.1
%TAG !u! tag:unity3d.com,2011:
--- !u!114 &11400000
MonoBehaviour:
  m_ObjectHideFlags: 0
  m_CorrespondingSourceObject: {fileID: 0}
  m_PrefabInstance: {fileID: 0}
  m_PrefabAsset: {fileID: 0}
  m_GameObject: {fileID: 0}
  m_Enabled: 1
  m_EditorHideFlags: 0
  m_Script: {fileID: 11500000, guid: be5b4585001a336448ab33b1c37f95de, type: 3}
  m_Name: Power Blade Flux
  m_EditorClassIdentifier: 
  uniqueId: 668bc027164dcc0489adfcfd6ae672b8
  type: 2
  cardName: Power Blade Flux
  artwork: {fileID: 21300000, guid: 6d7bf3af15153b942be598966e9ba2bc, type: 3}
  cardPrefab: {fileID: 6926223370740451192, guid: 00af9f01129f94c408c66f3e618287ef,
    type: 3}
  auraCost: 0
  tributeCost: 0
  isSupport: 0
  damage: 0
  blockDamage: 0
  attackDescription: Move 1 unfocused aura card from your aura zone to your hand.
  defendDescription: This ability can only be use once per turn.
  onHitDescription: 
  description: This ability may be used only if this fighter has any electric marks.
  limit: 1
  MagicRequirement: 0
  TechRequirement: 20
  StrengthRequirement: 0
  abilityType: 1
  style: 1
  hasAttack: 1
  hasDefend: 0
