%YAML 1.1
%TAG !u! tag:unity3d.com,2011:
--- !u!114 &11400000
MonoBehaviour:
  m_ObjectHideFlags: 0
  m_CorrespondingSourceObject: {fileID: 0}
  m_PrefabInstance: {fileID: 0}
  m_PrefabAsset: {fileID: 0}
  m_GameObject: {fileID: 0}
  m_Enabled: 1
  m_EditorHideFlags: 0
  m_Script: {fileID: 11500000, guid: ea1177afdc27ebe4b9e3603bd5b9e823, type: 3}
  m_Name: Aura
  m_EditorClassIdentifier: 
  uniqueId: ee3e9342de66c9846ba14f5e0bc69f43
  type: 0
  cardName: Aura
  artwork: {fileID: 0}
  cardPrefab: {fileID: 9004781825495311398, guid: 2ccc571a2312d94419df3421a772d5f6,
    type: 3}
