%YAML 1.1
%TAG !u! tag:unity3d.com,2011:
--- !u!114 &11400000
MonoBehaviour:
  m_ObjectHideFlags: 0
  m_CorrespondingSourceObject: {fileID: 0}
  m_PrefabInstance: {fileID: 0}
  m_PrefabAsset: {fileID: 0}
  m_GameObject: {fileID: 0}
  m_Enabled: 1
  m_EditorHideFlags: 0
  m_Script: {fileID: 11500000, guid: cfba7b668130f224181a78fcd3e35be5, type: 3}
  m_Name: Magic Mirror of Doom
  m_EditorClassIdentifier: 
  uniqueId: ad9f08f964e41ae4196731cf16f78b72
  type: 3
  cardName: Magic Mirror of Doom
  artwork: {fileID: 21300000, guid: b4edd5b1d3ce1c5469439c731263a44b, type: 3}
  cardPrefab: {fileID: 6119059454832700107, guid: d2922fbe73bfcf14b97b9315f8a059f0,
    type: 3}
  auraCost: 4
  description: <b>Defend:</b> If the incoming ability is not a spell style this card
    does nothing. At the beginning of your next offensive turn, use the attack trigger
    of the incoming ability against your opponent as if it is attached to your active
    fighter (you don't pay the base aura and ignore the attachment requirements).
