%YAML 1.1
%TAG !u! tag:unity3d.com,2011:
--- !u!1001 &6434722394135515757
PrefabInstance:
  m_ObjectHideFlags: 0
  serializedVersion: 2
  m_Modification:
    m_TransformParent: {fileID: 0}
    m_Modifications:
    - target: {fileID: 1101010150474480109, guid: 649ab310d6ea70240b6a387c7e4c0dd7,
        type: 3}
      propertyPath: m_Name
      value: Defensive Turn Sign
      objectReference: {fileID: 0}
    - target: {fileID: 1101010150474480110, guid: 649ab310d6ea70240b6a387c7e4c0dd7,
        type: 3}
      propertyPath: m_LocalPosition.x
      value: 0
      objectReference: {fileID: 0}
    - target: {fileID: 1101010150474480110, guid: 649ab310d6ea70240b6a387c7e4c0dd7,
        type: 3}
      propertyPath: m_LocalPosition.y
      value: 0
      objectReference: {fileID: 0}
    - target: {fileID: 1101010150474480110, guid: 649ab310d6ea70240b6a387c7e4c0dd7,
        type: 3}
      propertyPath: m_LocalPosition.z
      value: 0
      objectReference: {fileID: 0}
    - target: {fileID: 1101010150474480110, guid: 649ab310d6ea70240b6a387c7e4c0dd7,
        type: 3}
      propertyPath: m_LocalRotation.x
      value: 0
      objectReference: {fileID: 0}
    - target: {fileID: 1101010150474480110, guid: 649ab310d6ea70240b6a387c7e4c0dd7,
        type: 3}
      propertyPath: m_LocalRotation.y
      value: 0
      objectReference: {fileID: 0}
    - target: {fileID: 1101010150474480110, guid: 649ab310d6ea70240b6a387c7e4c0dd7,
        type: 3}
      propertyPath: m_LocalRotation.z
      value: 0
      objectReference: {fileID: 0}
    - target: {fileID: 1101010150474480110, guid: 649ab310d6ea70240b6a387c7e4c0dd7,
        type: 3}
      propertyPath: m_LocalRotation.w
      value: 1
      objectReference: {fileID: 0}
    - target: {fileID: 1101010150474480110, guid: 649ab310d6ea70240b6a387c7e4c0dd7,
        type: 3}
      propertyPath: m_RootOrder
      value: 0
      objectReference: {fileID: 0}
    - target: {fileID: 1101010150474480110, guid: 649ab310d6ea70240b6a387c7e4c0dd7,
        type: 3}
      propertyPath: m_LocalEulerAnglesHint.x
      value: 0
      objectReference: {fileID: 0}
    - target: {fileID: 1101010150474480110, guid: 649ab310d6ea70240b6a387c7e4c0dd7,
        type: 3}
      propertyPath: m_LocalEulerAnglesHint.y
      value: 0
      objectReference: {fileID: 0}
    - target: {fileID: 1101010150474480110, guid: 649ab310d6ea70240b6a387c7e4c0dd7,
        type: 3}
      propertyPath: m_LocalEulerAnglesHint.z
      value: 0
      objectReference: {fileID: 0}
    - target: {fileID: 1101010150474480110, guid: 649ab310d6ea70240b6a387c7e4c0dd7,
        type: 3}
      propertyPath: m_AnchoredPosition.x
      value: 1227.3
      objectReference: {fileID: 0}
    - target: {fileID: 1101010150474480110, guid: 649ab310d6ea70240b6a387c7e4c0dd7,
        type: 3}
      propertyPath: m_AnchoredPosition.y
      value: 0
      objectReference: {fileID: 0}
    - target: {fileID: 1101010150474480110, guid: 649ab310d6ea70240b6a387c7e4c0dd7,
        type: 3}
      propertyPath: m_SizeDelta.x
      value: 589.7
      objectReference: {fileID: 0}
    - target: {fileID: 1101010150474480110, guid: 649ab310d6ea70240b6a387c7e4c0dd7,
        type: 3}
      propertyPath: m_SizeDelta.y
      value: 142.9
      objectReference: {fileID: 0}
    - target: {fileID: 1101010150474480110, guid: 649ab310d6ea70240b6a387c7e4c0dd7,
        type: 3}
      propertyPath: m_AnchorMin.x
      value: 0.5
      objectReference: {fileID: 0}
    - target: {fileID: 1101010150474480110, guid: 649ab310d6ea70240b6a387c7e4c0dd7,
        type: 3}
      propertyPath: m_AnchorMin.y
      value: 0.5
      objectReference: {fileID: 0}
    - target: {fileID: 1101010150474480110, guid: 649ab310d6ea70240b6a387c7e4c0dd7,
        type: 3}
      propertyPath: m_AnchorMax.x
      value: 0.5
      objectReference: {fileID: 0}
    - target: {fileID: 1101010150474480110, guid: 649ab310d6ea70240b6a387c7e4c0dd7,
        type: 3}
      propertyPath: m_AnchorMax.y
      value: 0.5
      objectReference: {fileID: 0}
    - target: {fileID: 1101010150474480110, guid: 649ab310d6ea70240b6a387c7e4c0dd7,
        type: 3}
      propertyPath: m_Pivot.x
      value: 0.5
      objectReference: {fileID: 0}
    - target: {fileID: 1101010150474480110, guid: 649ab310d6ea70240b6a387c7e4c0dd7,
        type: 3}
      propertyPath: m_Pivot.y
      value: 0.5
      objectReference: {fileID: 0}
    - target: {fileID: 1101010150474480104, guid: 649ab310d6ea70240b6a387c7e4c0dd7,
        type: 3}
      propertyPath: m_textInfo.characterCount
      value: 7
      objectReference: {fileID: 0}
    - target: {fileID: 1101010150474480104, guid: 649ab310d6ea70240b6a387c7e4c0dd7,
        type: 3}
      propertyPath: m_textInfo.wordCount
      value: 1
      objectReference: {fileID: 0}
    - target: {fileID: 1101010150474480104, guid: 649ab310d6ea70240b6a387c7e4c0dd7,
        type: 3}
      propertyPath: m_textInfo.lineCount
      value: 1
      objectReference: {fileID: 0}
    - target: {fileID: 1101010150474480104, guid: 649ab310d6ea70240b6a387c7e4c0dd7,
        type: 3}
      propertyPath: m_textInfo.pageCount
      value: 1
      objectReference: {fileID: 0}
    - target: {fileID: 1101010150474480104, guid: 649ab310d6ea70240b6a387c7e4c0dd7,
        type: 3}
      propertyPath: m_fontColor.r
      value: 0.09019608
      objectReference: {fileID: 0}
    - target: {fileID: 1101010150474480104, guid: 649ab310d6ea70240b6a387c7e4c0dd7,
        type: 3}
      propertyPath: m_fontColor.g
      value: 0.56179
      objectReference: {fileID: 0}
    - target: {fileID: 1101010150474480104, guid: 649ab310d6ea70240b6a387c7e4c0dd7,
        type: 3}
      propertyPath: m_fontColor.b
      value: 0.9137255
      objectReference: {fileID: 0}
    - target: {fileID: 1101010150474480104, guid: 649ab310d6ea70240b6a387c7e4c0dd7,
        type: 3}
      propertyPath: m_fontColor32.rgba
      value: 4293496599
      objectReference: {fileID: 0}
    - target: {fileID: 1101010150474480104, guid: 649ab310d6ea70240b6a387c7e4c0dd7,
        type: 3}
      propertyPath: m_text
      value: Defend!
      objectReference: {fileID: 0}
    m_RemovedComponents: []
  m_SourcePrefab: {fileID: 100100000, guid: 649ab310d6ea70240b6a387c7e4c0dd7, type: 3}
